ESS 330 lab 8 – Ess 330 Lab 8
…
Define the search grid

my.grid <- grid_latin_hypercube(
  hidden_units(),
  penalty(),
  size = 25
)

Warning: `grid_latin_hypercube()` was deprecated in dials 1.3.0.
ℹ Please use `grid_space_filling()` instead.

print(my.grid)

# A tibble: 25 × 2
   hidden_units       penalty
          <int>         <dbl>
 1            4 0.000000367  
 2            7 0.0000000315 
 3            7 0.0406       
 4            4 0.00000000329
 5            3 0.00758      
 6            5 0.0000253    
 7            9 0.00115      
 8            6 0.000000532  
 9            3 0.338        
10            9 0.00000862   
# ℹ 15 more rows
…
Based on the results, the best models had around 4 to 7 hidden units and a moderate penalty value (between -5 and -2 on the log scale), which is to be expected. Models with too few or too many hidden units didn’t perform as well, and the same was true for penalties that were too small or too large. The best combinations (models with values within the parameters described above) gave me the lowest prediction error (MAE and RMSE) and the highest R², meaning they made more accurate predictions and explained more of the variation in the data. This shows that tuning both parameters helped me find a strong model that balances learning the data well without overfitting.

Check model skill

metrics_tbl <- collect_metrics(model_params)
print(metrics_tbl)

# A tibble: 75 × 8
   hidden_units       penalty .metric .estimator  mean     n std_err .config    
          <int>         <dbl> <chr>   <chr>      <dbl> <int>   <dbl> <chr>      
 1            4 0.000000367   mae     standard   0.284    10  0.0182 Preprocess…
 2            4 0.000000367   rmse    standard   0.411    10  0.0333 Preprocess…
 3            4 0.000000367   rsq     standard   0.890    10  0.0142 Preprocess…
 4            7 0.0000000315  mae     standard   0.290    10  0.0182 Preprocess…
 5            7 0.0000000315  rmse    standard   0.419    10  0.0327 Preprocess…
 6            7 0.0000000315  rsq     standard   0.883    10  0.0147 Preprocess…
 7            7 0.0406        mae     standard   0.295    10  0.0185 Preprocess…
 8            7 0.0406        rmse    standard   0.420    10  0.0306 Preprocess…
 9            7 0.0406        rsq     standard   0.886    10  0.0125 Preprocess…
10            4 0.00000000329 mae     standard   0.284    10  0.0167 Preprocess…
# ℹ 65 more rows

metrics_tbl <- collect_metrics(model_params)
print(metrics_tbl)

# A tibble: 75 × 8
   hidden_units       penalty .metric .estimator  mean     n std_err .config    
          <int>         <dbl> <chr>   <chr>      <dbl> <int>   <dbl> <chr>      
 1            4 0.000000367   mae     standard   0.284    10  0.0182 Preprocess…
 2            4 0.000000367   rmse    standard   0.411    10  0.0333 Preprocess…
 3            4 0.000000367   rsq     standard   0.890    10  0.0142 Preprocess…
 4            7 0.0000000315  mae     standard   0.290    10  0.0182 Preprocess…
 5            7 0.0000000315  rmse    standard   0.419    10  0.0327 Preprocess…
 6            7 0.0000000315  rsq     standard   0.883    10  0.0147 Preprocess…
 7            7 0.0406        mae     standard   0.295    10  0.0185 Preprocess…
 8            7 0.0406        rmse    standard   0.420    10  0.0306 Preprocess…
 9            7 0.0406        rsq     standard   0.886    10  0.0125 Preprocess…
10            4 0.00000000329 mae     standard   0.284    10  0.0167 Preprocess…
# ℹ 65 more rows

collect_metrics(model_params) %>%
  filter(.metric == "mae") %>%
  arrange(mean)

# A tibble: 25 × 8
   hidden_units  penalty .metric .estimator  mean     n std_err .config         
          <int>    <dbl> <chr>   <chr>      <dbl> <int>   <dbl> <chr>           
 1            4 3.29e- 9 mae     standard   0.284    10  0.0167 Preprocessor1_M…
 2            6 5.32e- 7 mae     standard   0.284    10  0.0187 Preprocessor1_M…
 3            4 3.67e- 7 mae     standard   0.284    10  0.0182 Preprocessor1_M…
 4            3 5.16e- 5 mae     standard   0.285    10  0.0185 Preprocessor1_M…
 5            2 1.89e-10 mae     standard   0.285    10  0.0168 Preprocessor1_M…
 6            5 1.79e- 8 mae     standard   0.285    10  0.0194 Preprocessor1_M…
 7            3 7.58e- 3 mae     standard   0.286    10  0.0176 Preprocessor1_M…
 8            4 2.92e-10 mae     standard   0.286    10  0.0195 Preprocessor1_M…
 9            5 2.53e- 5 mae     standard   0.287    10  0.0203 Preprocessor1_M…
10            9 1.15e- 3 mae     standard   0.288    10  0.0181 Preprocessor1_M…
# ℹ 15 more rows
…
